[
  { 
	  "url": "scenarios/example/scenario.wjson",
	  "title": "Comment modéliser un comportement Pavlovien grâce aux mathématiques ?"
  },
  {
	  "url": "scenarios/exploration-visuelle/scenario.wjson",
	  "title": "Comment notre cerveau explore l’espace visuel ?"
  },
  {
	  "url": "scenarios/language/scenario.wjson",
	  "title": "Quels réseaux s'activent lors de la compréhension du langage ?"
  },
  {
	  "url": "scenarios/memories/scenario.wjson",
	  "title": "Quelles sont les différentes mémoires ?"
  },
  {
	  "url": "scenarios/usual-suspect/scenario.wjson",
	  "title": "Comment reconnait-on une image ?"
  },
  {
	  "url": "scenarios/reasoning/scenario.wjson",
	  "title": "How do you catch your flight on time ?"
  }
]
