{
    "tags": {
        "allowUnknownTags": true
    },
    "source": {
        "includePattern": ".+.js$"
    },
    "plugins": [
        "plugins/markdown"
    ],
    "markdown": {
        "parser": "gfm"
    },
    "templates": {
        "cleverLinks": false,
        "monospaceLinks": false,
        "default": {
            "outputSourceFiles": true
        }
    }
}
