####
#
# OBJ File Generated by Meshlab
#
####
# Object CC_Posterior-resize.obj
#
# Vertices: 37
# Faces: 70
#
####
vn -1.378472 -4.222483 -0.505163
v -2.329050 -36.029701 -0.596701 0.752941 0.752941 0.752941
vn -1.327163 -3.728035 1.395656
v -2.576754 -35.589584 4.295353 0.752941 0.752941 0.752941
vn -5.613763 -1.923806 0.791437
v -3.243557 -34.472084 4.076272 0.752941 0.752941 0.752941
vn 3.311203 -3.882329 -1.042106
v 0.462730 -35.078129 -0.973028 0.752941 0.752941 0.752941
vn 3.544420 -3.645386 1.436630
v 0.522261 -34.571938 3.827914 0.752941 0.752941 0.752941
vn 5.719940 -1.321408 -0.817713
v 1.425407 -32.903816 -1.200193 0.752941 0.752941 0.752941
vn -5.728046 -1.525331 -0.533782
v -3.450173 -34.112617 -0.678810 0.752941 0.752941 0.752941
vn -1.412630 -2.460847 -2.360146
v -2.545192 -34.959095 -3.336607 0.752941 0.752941 0.752941
vn -1.685925 -2.848498 2.898365
v -2.571367 -33.287964 7.301928 0.752941 0.752941 0.752941
vn 5.846872 -1.310202 1.003887
v 1.371809 -31.653425 4.845162 0.752941 0.752941 0.752941
vn 3.287415 -3.017708 3.408000
v 0.300175 -31.293791 8.019923 0.752941 0.752941 0.752941
vn -2.450489 -0.047335 -3.434932
v -2.805810 -31.427019 -4.497085 0.752941 0.752941 0.752941
vn 2.677518 -0.888886 -3.363204
v 0.695718 -32.074116 -4.241297 0.752941 0.752941 0.752941
vn -5.932885 0.813959 -1.146028
v -3.445112 -29.047239 -1.102214 0.752941 0.752941 0.752941
vn 3.066213 -1.768859 3.913254
v 0.569621 -28.903406 9.613334 0.752941 0.752941 0.752941
vn -5.866035 -0.786126 1.406833
v -3.375229 -30.709873 7.077286 0.752941 0.752941 0.752941
vn 2.189998 1.775313 -3.569959
v 0.411452 -28.244316 -3.836021 0.752941 0.752941 0.752941
vn -5.886321 0.082288 1.371291
v -3.434905 -25.247528 8.409133 0.752941 0.752941 0.752941
vn -2.878328 2.253185 -3.784213
v -2.351068 -28.632626 -3.651624 0.752941 0.752941 0.752941
vn -1.992170 -1.583158 3.861614
v -2.327407 -29.591061 9.852417 0.752941 0.752941 0.752941
vn -4.185470 2.873440 -3.152740
v -2.557855 -25.785566 -0.543443 0.752941 0.752941 0.752941
vn -5.715460 1.549738 -1.136462
v -3.293798 -24.517984 2.385448 0.752941 0.752941 0.752941
vn -0.469862 4.244995 -4.190472
v -0.823344 -26.465719 -2.271074 0.752941 0.752941 0.752941
vn -4.020581 0.131612 4.023587
v -2.781843 -24.484928 9.825855 0.752941 0.752941 0.752941
vn 5.758505 -0.890154 1.733248
v 1.226385 -28.379133 8.459737 0.752941 0.752941 0.752941
vn 6.177064 0.440643 0.321782
v 1.503279 -24.547567 7.150059 0.752941 0.752941 0.752941
vn 5.720775 1.199538 -1.405000
v 1.341286 -27.360277 -0.921865 0.752941 0.752941 0.752941
vn 3.124943 3.682151 -3.090849
v 0.526650 -25.050549 -0.243419 0.752941 0.752941 0.752941
vn 3.611711 1.245735 2.871608
v 0.992537 -22.676201 10.395231 0.752941 0.752941 0.752941
vn 1.246861 0.121381 4.617926
v 0.293805 -23.590086 11.018042 0.752941 0.752941 0.752941
vn 3.695219 3.101933 -1.462649
v 1.098500 -22.656866 3.699880 0.752941 0.752941 0.752941
vn 3.813643 3.463671 -0.812710
v 0.875412 -21.378120 6.929509 0.752941 0.752941 0.752941
vn -4.795195 2.470999 0.176840
v -3.087590 -21.577459 8.179297 0.752941 0.752941 0.752941
vn -0.823443 5.309272 -1.605672
v -1.498703 -20.929996 6.204670 0.752941 0.752941 0.752941
vn -1.741863 3.726105 -2.207094
v -2.206866 -22.448702 2.153375 0.752941 0.752941 0.752941
vn 1.335703 2.819771 1.591333
v 0.038366 -20.295362 9.805087 0.752941 0.752941 0.752941
vn -1.728611 2.356794 1.822319
v -2.254326 -20.528357 9.913769 0.752941 0.752941 0.752941
# 37 vertices, 0 vertices normals

f 2//2 3//3 1//1
f 4//4 5//5 1//1
f 7//7 1//1 3//3
f 2//2 5//5 9//9
f 2//2 9//9 3//3
f 1//1 5//5 2//2
f 6//6 5//5 4//4
f 4//4 1//1 8//8
f 1//1 7//7 8//8
f 9//9 16//16 3//3
f 6//6 10//10 5//5
f 4//4 13//13 6//6
f 4//4 8//8 13//13
f 5//5 10//10 11//11
f 11//11 9//9 5//5
f 7//7 12//12 8//8
f 12//12 13//13 8//8
f 3//3 16//16 7//7
f 7//7 14//14 12//12
f 16//16 9//9 20//20
f 25//25 15//15 11//11
f 11//11 10//10 25//25
f 11//11 15//15 20//20
f 11//11 20//20 9//9
f 6//6 26//26 10//10
f 7//7 18//18 14//14
f 6//6 27//27 26//26
f 6//6 13//13 27//27
f 13//13 12//12 17//17
f 19//19 17//17 12//12
f 20//20 18//18 16//16
f 16//16 18//18 7//7
f 27//27 13//13 17//17
f 14//14 19//19 12//12
f 14//14 21//21 19//19
f 25//25 30//30 15//15
f 15//15 30//30 20//20
f 20//20 24//24 18//18
f 25//25 10//10 26//26
f 23//23 19//19 21//21
f 23//23 17//17 19//19
f 20//20 30//30 24//24
f 22//22 21//21 14//14
f 27//27 17//17 28//28
f 17//17 23//23 28//28
f 30//30 25//25 29//29
f 25//25 26//26 29//29
f 22//22 14//14 18//18
f 26//26 27//27 31//31
f 27//27 28//28 31//31
f 18//18 33//33 22//22
f 22//22 35//35 21//21
f 35//35 28//28 23//23
f 23//23 21//21 35//35
f 37//37 24//24 30//30
f 24//24 37//37 33//33
f 24//24 33//33 18//18
f 26//26 32//32 29//29
f 26//26 31//31 32//32
f 22//22 33//33 35//35
f 28//28 35//35 31//31
f 30//30 29//29 37//37
f 37//37 29//29 36//36
f 29//29 32//32 36//36
f 32//32 31//31 35//35
f 32//32 35//35 34//34
f 34//34 35//35 33//33
f 32//32 34//34 36//36
f 36//36 34//34 37//37
f 33//33 37//37 34//34
# 70 faces, 0 coords texture

# End of File
