####
#
# OBJ File Generated by Meshlab
#
####
# Object Inf-Lat-Vent-resize-v2.obj
#
# Vertices: 42
# Faces: 66
#
####
mtllib ./Inf-Lat-Vent-resize-v2.obj.mtl

vn -0.194546 -2.023734 0.416224
v 23.352255 -18.039242 -25.678059 0.752941 0.752941 0.752941
vn 0.884799 -1.753698 2.367051
v 26.033695 -16.398607 -24.910395 0.752941 0.752941 0.752941
vn -0.973130 2.597016 2.693615
v 24.037939 -15.852943 -25.195871 0.752941 0.752941 0.752941
vn -0.585090 0.079760 0.088074
v 20.895372 -16.364708 -25.733782 0.752941 0.752941 0.752941
vn 0.606224 0.313370 -2.422532
v 25.672392 -15.895635 -26.757040 0.752941 0.752941 0.752941
vn -0.410288 0.585861 -2.097885
v 23.193188 -16.217314 -27.343723 0.752941 0.752941 0.752941
vn 0.174422 -0.568488 0.295323
v 35.713093 -17.460751 -31.269800 0.752941 0.752941 0.752941
vn 0.860789 -3.978984 -0.943915
v 34.378094 -15.955595 -34.188583 0.752941 0.752941 0.752941
vn 3.723291 0.344442 0.751358
v 36.020447 -15.575099 -31.923590 0.752941 0.752941 0.752941
vn 0.270348 -0.002435 0.000484
v 29.114082 -15.687719 -25.620758 0.752941 0.752941 0.752941
vn -0.792372 -1.027529 4.062155
v 34.410606 -14.881680 -31.263411 0.752941 0.752941 0.752941
vn 5.065460 0.047058 -2.286260
v 35.013565 -14.761967 -34.244705 0.752941 0.752941 0.752941
vn 1.506247 -3.045627 -2.512466
v 33.215691 -15.464755 -36.431702 0.752941 0.752941 0.752941
vn 0.301227 2.862456 0.856890
v 26.779692 -14.942528 -25.402094 0.752941 0.752941 0.752941
vn 3.106868 2.159028 -2.683514
v 33.605766 -12.793417 -36.460175 0.752941 0.752941 0.752941
vn -2.854172 -3.861800 -0.868887
v 30.231754 -14.795387 -36.682697 0.752941 0.752941 0.752941
vn -4.114001 -1.330559 2.378144
v 30.608398 -13.783062 -33.943630 0.752941 0.752941 0.752941
vn -0.249934 -1.743030 -3.748069
v 31.167553 -14.412004 -37.879539 0.752941 0.752941 0.752941
vn -3.129831 0.130358 -0.386865
v 29.237465 -13.548186 -36.552486 0.752941 0.752941 0.752941
vn 2.946621 2.566303 2.199975
v 34.998661 -13.695387 -31.784393 0.752941 0.752941 0.752941
vn -1.120885 1.109969 2.082466
v 31.914898 -12.611768 -31.543547 0.752941 0.752941 0.752941
vn -0.691380 1.833895 -2.163210
v 30.742756 -12.343149 -37.872040 0.752941 0.752941 0.752941
vn -2.796898 4.626722 1.065408
v 31.106483 -12.258059 -34.617115 0.752941 0.752941 0.752941
vn 1.943271 4.819599 0.089249
v 33.348988 -12.008821 -34.249111 0.752941 0.752941 0.752941
vn -0.039926 -0.958591 1.202533
v -33.120319 -37.733410 -11.251907 0.752941 0.752941 0.752941
vn -0.531263 0.005174 -0.171528
v -35.325680 -36.801582 -13.264801 0.752941 0.752941 0.752941
vn 1.745749 -1.450259 -1.232160
v -32.538582 -37.508915 -12.733362 0.752941 0.752941 0.752941
vn 0.885355 0.911749 0.891335
v -32.437626 -36.373837 -11.499634 0.752941 0.752941 0.752941
vn 0.136176 1.171068 -1.465593
v -33.665443 -36.211601 -13.529691 0.752941 0.752941 0.752941
vn 0.696223 0.104423 0.135695
v -37.607498 -21.999485 -24.616253 0.752941 0.752941 0.752941
vn -2.086151 -0.149631 0.126564
v -37.525967 -19.953533 -26.609016 0.752941 0.752941 0.752941
vn 1.643259 0.275079 0.387627
v -37.395836 -21.890633 -25.786016 0.752941 0.752941 0.752941
vn -0.833513 -0.628891 -0.517121
v -37.594322 -18.990849 -28.454823 0.752941 0.752941 0.752941
vn 0.834629 -0.699324 0.440866
v -36.425339 -17.018826 -29.233280 0.752941 0.752941 0.752941
vn -0.855781 0.949074 0.035952
v -37.044460 -17.108156 -28.937969 0.752941 0.752941 0.752941
vn -2.939518 -0.967617 -2.023706
v -36.044941 -14.973999 -32.169773 0.752941 0.752941 0.752941
vn 2.305134 -4.769726 -0.286884
v -34.826988 -15.199722 -31.892576 0.752941 0.752941 0.752941
vn -2.004308 2.385975 1.830657
v -36.422874 -15.255163 -30.283516 0.752941 0.752941 0.752941
vn 1.899392 1.595127 2.601566
v -34.421974 -14.299562 -31.522499 0.752941 0.752941 0.752941
vn 0.186272 -0.019944 -0.139646
v -31.646366 -14.553261 -34.891804 0.752941 0.752941 0.752941
vn -2.326078 1.618972 -1.413042
v -35.178028 -13.721664 -33.212807 0.752941 0.752941 0.752941
vn -0.343395 2.789460 -0.829963
v -34.509369 -13.321826 -33.392551 0.752941 0.752941 0.752941
# 42 vertices, 0 vertices normals


usemtl material_0
f 1//1 2//2 3//3
f 1//1 3//3 4//4
f 1//1 5//5 2//2
f 1//1 4//4 6//6
f 7//7 8//8 9//9
f 2//2 5//5 10//10
f 5//5 1//1 6//6
f 11//11 7//7 9//9
f 7//7 11//11 8//8
f 9//9 8//8 12//12
f 8//8 13//13 12//12
f 10//10 14//14 2//2
f 3//3 2//2 14//14
f 3//3 6//6 4//4
f 5//5 6//6 3//3
f 12//12 13//13 15//15
f 8//8 16//16 13//13
f 8//8 11//11 16//16
f 17//17 16//16 11//11
f 13//13 16//16 18//18
f 13//13 18//18 15//15
f 16//16 19//19 18//18
f 5//5 14//14 10//10
f 14//14 5//5 3//3
f 11//11 9//9 20//20
f 11//11 20//20 21//21
f 11//11 21//21 17//17
f 9//9 12//12 20//20
f 16//16 17//17 19//19
f 18//18 22//22 15//15
f 19//19 22//22 18//18
f 21//21 23//23 17//17
f 12//12 15//15 20//20
f 17//17 23//23 19//19
f 20//20 24//24 21//21
f 15//15 24//24 20//20
f 23//23 22//22 19//19
f 24//24 23//23 21//21
f 22//22 23//23 24//24
f 22//22 24//24 15//15
f 25//25 26//26 27//27
f 25//25 27//27 28//28
f 27//27 26//26 29//29
f 26//26 25//25 28//28
f 28//28 27//27 29//29
f 28//28 29//29 26//26
f 31//31 30//30 32//32
f 33//33 32//32 31//31
f 31//31 34//34 35//35
f 31//31 35//35 33//33
f 31//31 33//33 34//34
f 33//33 35//35 34//34
f 36//36 37//37 34//34
f 34//34 35//35 36//36
f 35//35 38//38 36//36
f 34//34 38//38 35//35
f 38//38 34//34 39//39
f 34//34 37//37 39//39
f 40//40 39//39 37//37
f 37//37 36//36 40//40
f 40//40 36//36 41//41
f 38//38 39//39 41//41
f 41//41 36//36 38//38
f 41//41 42//42 40//40
f 39//39 42//42 41//41
f 42//42 39//39 40//40
# 66 faces, 0 coords texture

# End of File
