####
#
# OBJ File Generated by Meshlab
#
####
# Object Pallidum-resize-v2.obj
#
# Vertices: 135
# Faces: 262
#
####
mtllib ./Pallidum-resize-v2.obj.mtl

vn 2.347744 -2.912462 -0.122846
v 26.998667 -13.676886 -17.831747 0.752941 0.752941 0.752941
vn -1.870245 -3.025172 2.249040
v 24.537004 -13.572651 -17.260962 0.752941 0.752941 0.752941
vn -0.405945 -2.138592 -1.855007
v 25.043812 -13.948813 -19.630939 0.752941 0.752941 0.752941
vn 2.152030 -1.547198 2.280434
v 27.573542 -12.396275 -16.322510 0.752941 0.752941 0.752941
vn -3.118288 -4.318125 -0.059964
v 22.814558 -11.439860 -18.759258 0.752941 0.752941 0.752941
vn 1.896420 -1.338953 -4.686503
v 25.822115 -12.371697 -19.816874 0.752941 0.752941 0.752941
vn 5.533049 -0.388555 -1.171619
v 27.853088 -10.583144 -17.511566 0.752941 0.752941 0.752941
vn -2.809693 -2.221467 5.046097
v 23.214407 -10.050764 -17.135967 0.752941 0.752941 0.752941
vn -0.321373 -2.943136 -5.186874
v 24.165798 -10.735122 -20.267387 0.752941 0.752941 0.752941
vn 3.113453 -0.951326 2.970548
v 27.446625 -8.520560 -15.404833 0.752941 0.752941 0.752941
vn -2.028706 -2.198388 5.448091
v 25.229109 -8.798166 -15.934930 0.752941 0.752941 0.752941
vn -1.940904 -3.537546 -0.153530
v 20.189707 -10.795478 -19.506699 0.752941 0.752941 0.752941
vn 4.287621 -0.729547 -3.994303
v 26.230299 -6.885435 -20.689995 0.752941 0.752941 0.752941
vn -0.896839 -3.154629 -4.867157
v 19.623625 -8.307487 -21.651283 0.752941 0.752941 0.752941
vn -2.575683 -2.553928 4.716536
v 19.844896 -8.361540 -17.611465 0.752941 0.752941 0.752941
vn -2.731163 -5.125264 -0.340382
v 18.175079 -8.675247 -20.037331 0.752941 0.752941 0.752941
vn 5.095644 1.921737 -1.366219
v 27.051939 -4.010582 -18.809559 0.752941 0.752941 0.752941
vn -2.462442 -3.097691 -0.084403
v 15.615743 -7.770977 -20.345346 0.752941 0.752941 0.752941
vn 1.865716 -0.718466 -5.387204
v 24.608154 -5.736603 -22.119501 0.752941 0.752941 0.752941
vn -0.850626 -1.435714 -5.470430
v 16.991205 -5.184287 -22.789307 0.752941 0.752941 0.752941
vn 0.916711 -0.726865 2.997167
v 26.131155 -5.499889 -12.896592 0.752941 0.752941 0.752941
vn -2.672331 -2.953561 4.355653
v 22.586664 -4.240715 -15.588453 0.752941 0.752941 0.752941
vn -2.074194 -2.455060 5.365587
v 19.076458 -4.549207 -16.873003 0.752941 0.752941 0.752941
vn -3.199860 -3.061695 4.386318
v 15.601373 -6.440222 -19.553530 0.752941 0.752941 0.752941
vn -3.240060 -3.295243 -1.091027
v 13.953811 -5.939237 -20.883657 0.752941 0.752941 0.752941
vn -1.181981 -2.429157 4.690480
v 24.368858 -3.626247 -12.912314 0.752941 0.752941 0.752941
vn -3.352975 -2.772546 3.729928
v 13.484281 -3.934528 -18.487486 0.752941 0.752941 0.752941
vn -1.850065 -1.395929 -5.487649
v 14.759759 -4.155091 -22.372940 0.752941 0.752941 0.752941
vn 4.947844 2.320103 1.077948
v 26.838709 -3.131245 -15.512813 0.752941 0.752941 0.752941
vn 3.292897 1.626471 -3.757269
v 25.573242 -3.943415 -21.552479 0.752941 0.752941 0.752941
vn -3.812835 -1.163788 -3.082838
v 12.344811 -2.973292 -21.623634 0.752941 0.752941 0.752941
vn -4.982165 -1.794350 0.918935
v 12.076198 -3.150624 -20.002964 0.752941 0.752941 0.752941
vn 4.558037 1.866622 3.489914
v 24.761555 -2.407033 -13.075964 0.752941 0.752941 0.752941
vn 1.467676 1.609820 -5.688546
v 22.334883 -2.713944 -22.111147 0.752941 0.752941 0.752941
vn 0.563073 -0.553338 2.692239
v 23.680651 -2.110117 -11.529811 0.752941 0.752941 0.752941
vn -3.025140 -4.017104 3.711879
v 21.743742 -2.070501 -13.618569 0.752941 0.752941 0.752941
vn -2.126904 -3.720726 4.509851
v 18.334148 -2.194850 -15.781584 0.752941 0.752941 0.752941
vn -3.426452 -2.645054 4.432321
v 14.095806 -0.632540 -16.569452 0.752941 0.752941 0.752941
vn 4.814135 3.304249 -2.162252
v 24.572922 -1.297154 -18.967251 0.752941 0.752941 0.752941
vn 0.641579 1.415722 -5.781129
v 17.447824 0.179748 -22.548191 0.752941 0.752941 0.752941
vn -2.563445 -2.126150 4.659874
v 16.255016 0.541547 -13.947039 0.752941 0.752941 0.752941
vn 3.388175 2.881891 -4.338158
v 23.036556 -0.987908 -20.749004 0.752941 0.752941 0.752941
vn 5.346875 2.970937 0.351130
v 24.765274 -0.328991 -16.186182 0.752941 0.752941 0.752941
vn -3.877570 1.416904 -2.485447
v 11.998193 2.611228 -21.146492 0.752941 0.752941 0.752941
vn -1.763831 0.578081 -5.695249
v 13.478812 0.845381 -22.202791 0.752941 0.752941 0.752941
vn 2.304825 2.622599 4.410169
v 22.579576 0.707683 -12.554220 0.752941 0.752941 0.752941
vn 3.473465 3.826074 2.355860
v 22.437244 3.243686 -14.654401 0.752941 0.752941 0.752941
vn -0.980888 0.290855 5.645267
v 18.766214 1.684438 -12.885226 0.752941 0.752941 0.752941
vn -4.578873 -0.412005 3.540584
v 12.704990 2.125982 -16.491659 0.752941 0.752941 0.752941
vn -4.321841 2.000301 0.949172
v 11.942892 3.924502 -18.033592 0.752941 0.752941 0.752941
vn 2.318744 3.488956 -4.215992
v 19.544355 4.008925 -20.081482 0.752941 0.752941 0.752941
vn -2.544160 1.662910 4.504488
v 15.582723 4.166001 -14.060608 0.752941 0.752941 0.752941
vn 4.389323 3.476580 -0.075736
v 23.341240 2.962496 -16.772495 0.752941 0.752941 0.752941
vn 3.268035 3.153176 -3.007606
v 22.460707 2.888279 -19.380159 0.752941 0.752941 0.752941
vn -1.146746 2.816803 -4.653372
v 13.627058 3.257183 -21.690165 0.752941 0.752941 0.752941
vn 2.176292 3.582758 3.996666
v 19.615021 4.518285 -14.196624 0.752941 0.752941 0.752941
vn 1.145279 4.178092 -2.490993
v 17.899216 6.004245 -19.408720 0.752941 0.752941 0.752941
vn 3.436210 5.032312 -0.473075
v 20.288904 4.943779 -17.069246 0.752941 0.752941 0.752941
vn -2.406769 4.770336 1.784453
v 16.021503 6.048629 -15.592470 0.752941 0.752941 0.752941
vn -2.110214 4.557225 -1.140950
v 13.971339 5.736791 -18.936312 0.752941 0.752941 0.752941
vn 0.527511 3.368461 1.716421
v 18.041361 6.683984 -14.840435 0.752941 0.752941 0.752941
vn -5.410733 -1.568756 0.714892
v -30.922724 -16.056473 -14.467606 0.752941 0.752941 0.752941
vn -3.232901 -2.943491 -3.003009
v -30.311819 -15.688525 -17.137079 0.752941 0.752941 0.752941
vn -0.328538 -1.683145 0.503052
v -30.013203 -18.355570 -14.073308 0.752941 0.752941 0.752941
vn 4.217359 -2.480059 2.502420
v -27.225355 -15.545314 -15.153171 0.752941 0.752941 0.752941
vn 0.042660 -1.299250 3.181010
v -29.746870 -13.681226 -11.563169 0.752941 0.752941 0.752941
vn 1.306004 -3.936041 -3.150354
v -27.020214 -15.351182 -18.156492 0.752941 0.752941 0.752941
vn 2.513182 -1.331574 -0.182917
v -24.735079 -14.578994 -17.127970 0.752941 0.752941 0.752941
vn -2.552399 -1.959781 -4.180954
v -29.787397 -13.894559 -18.846434 0.752941 0.752941 0.752941
vn -5.698454 -0.489774 -1.239948
v -31.293413 -12.896476 -16.597824 0.752941 0.752941 0.752941
vn 4.143316 -2.107512 1.760186
v -24.549421 -13.392515 -17.238548 0.752941 0.752941 0.752941
vn -5.436297 0.095341 2.141755
v -30.949717 -12.294064 -12.857110 0.752941 0.752941 0.752941
vn 0.162286 -0.376331 2.195717
v -29.577435 -12.295939 -10.778686 0.752941 0.752941 0.752941
vn 3.940465 -1.037851 3.731797
v -27.648857 -10.461773 -15.325498 0.752941 0.752941 0.752941
vn 3.086472 -3.299216 -2.769346
v -23.150988 -11.436682 -19.343897 0.752941 0.752941 0.752941
vn 0.054059 -1.813238 -5.816525
v -25.728327 -10.464257 -20.373737 0.752941 0.752941 0.752941
vn -2.878469 -0.522100 -4.672249
v -29.587746 -9.808551 -19.981112 0.752941 0.752941 0.752941
vn -1.696029 -0.948674 4.820251
v -29.307520 -8.814894 -11.861532 0.752941 0.752941 0.752941
vn -5.703190 0.751355 2.156518
v -30.660818 -9.508550 -13.511853 0.752941 0.752941 0.752941
vn 3.713104 -3.771360 1.346201
v -21.462254 -9.143712 -19.130516 0.752941 0.752941 0.752941
vn 4.842999 -2.740450 2.403578
v -28.074949 -8.835280 -12.865829 0.752941 0.752941 0.752941
vn 3.494062 -2.252748 4.673696
v -24.738804 -6.809268 -15.522187 0.752941 0.752941 0.752941
vn -5.215705 1.891718 -0.205828
v -31.093981 -7.213892 -16.478941 0.752941 0.752941 0.752941
vn -4.076902 1.563695 -2.994675
v -30.409655 -7.458279 -19.067194 0.752941 0.752941 0.752941
vn 1.376197 -2.934461 -4.835188
v -21.163452 -7.989941 -20.742655 0.752941 0.752941 0.752941
vn -2.259896 0.780901 -5.508029
v -27.497528 -6.944481 -20.464355 0.752941 0.752941 0.752941
vn 1.019391 -2.863832 2.708888
v -27.308558 -7.418434 -10.123275 0.752941 0.752941 0.752941
vn -4.610721 1.289252 2.737313
v -29.528248 -6.600817 -11.706535 0.752941 0.752941 0.752941
vn 4.320644 -3.096198 2.550687
v -26.542559 -7.075978 -14.237617 0.752941 0.752941 0.752941
vn 1.906240 -4.553086 -1.034458
v -17.676676 -7.803964 -19.602274 0.752941 0.752941 0.752941
vn 1.888318 -3.787268 3.521001
v -16.524063 -6.384049 -17.528542 0.752941 0.752941 0.752941
vn 1.256838 -2.485368 -5.102498
v -16.973843 -6.038787 -21.099525 0.752941 0.752941 0.752941
vn -1.574158 0.735077 -5.600159
v -25.430462 -5.103621 -21.143677 0.752941 0.752941 0.752941
vn -2.072499 -0.332128 3.454336
v -28.083208 -6.270670 -9.631865 0.752941 0.752941 0.752941
vn 2.265038 -3.274491 4.479420
v -22.613947 -4.654261 -15.960164 0.752941 0.752941 0.752941
vn -0.308569 -0.046374 -6.106185
v -19.794067 -3.814373 -21.626661 0.752941 0.752941 0.752941
vn 2.957079 -3.290141 3.353619
v -24.590286 -3.723631 -9.672723 0.752941 0.752941 0.752941
vn 3.737709 -3.718256 2.522812
v -24.428185 -4.505651 -14.356099 0.752941 0.752941 0.752941
vn 1.340741 -2.977527 5.322255
v -19.551867 -3.158705 -15.703683 0.752941 0.752941 0.752941
vn 3.021979 -2.065758 2.227652
v -14.287232 -5.165290 -17.485754 0.752941 0.752941 0.752941
vn 3.097481 -1.882979 -1.873217
v -14.219953 -5.404988 -20.364803 0.752941 0.752941 0.752941
vn -4.573989 2.807927 -3.009104
v -28.350319 -4.730336 -18.583460 0.752941 0.752941 0.752941
vn -2.614641 1.887987 4.268954
v -24.634798 -1.710996 -8.971355 0.752941 0.752941 0.752941
vn -5.031109 2.870650 2.331577
v -27.612875 -4.271445 -11.317940 0.752941 0.752941 0.752941
vn -5.474018 2.901914 0.011839
v -28.723831 -4.085707 -15.810858 0.752941 0.752941 0.752941
vn -3.133152 2.720544 -4.214355
v -26.430458 -2.750039 -19.720535 0.752941 0.752941 0.752941
vn -4.731250 2.741732 1.863344
v -26.947735 -0.196500 -12.818552 0.752941 0.752941 0.752941
vn 4.251183 -1.609350 3.802454
v -14.431884 -1.217932 -16.634514 0.752941 0.752941 0.752941
vn 1.836105 0.615757 -5.198293
v -15.814216 -1.256273 -21.579189 0.752941 0.752941 0.752941
vn 0.632212 0.004290 2.119871
v -23.606024 -1.919535 -8.282924 0.752941 0.752941 0.752941
vn 2.406725 -3.889377 4.164765
v -19.738144 -1.685460 -14.571747 0.752941 0.752941 0.752941
vn 6.062073 -0.830725 0.233146
v -13.766974 -0.378454 -18.059286 0.752941 0.752941 0.752941
vn 2.955273 1.885302 -3.628490
v -13.935021 2.453227 -19.346516 0.752941 0.752941 0.752941
vn -1.854281 2.564009 -5.265593
v -22.965652 -1.999040 -20.607836 0.752941 0.752941 0.752941
vn 4.511419 -3.049207 2.569906
v -22.319923 -2.008712 -11.594880 0.752941 0.752941 0.752941
vn 1.996775 2.661655 3.612742
v -23.257635 -0.672748 -9.720460 0.752941 0.752941 0.752941
vn -4.893260 2.865235 -1.531551
v -27.480915 -1.033821 -16.725414 0.752941 0.752941 0.752941
vn -1.662870 2.740252 -4.673273
v -20.761824 -0.077887 -20.843977 0.752941 0.752941 0.752941
vn 2.894929 -0.403435 5.092766
v -21.971401 0.195460 -11.191748 0.752941 0.752941 0.752941
vn 3.468943 -1.886899 4.180573
v -15.491315 0.531877 -14.512821 0.752941 0.752941 0.752941
vn -0.097438 2.478993 -5.374617
v -16.918024 0.101747 -21.269266 0.752941 0.752941 0.752941
vn -3.296103 4.143431 1.891024
v -25.659702 1.572310 -13.175558 0.752941 0.752941 0.752941
vn 2.544185 -1.274907 4.757807
v -18.430302 1.045535 -12.468686 0.752941 0.752941 0.752941
vn -3.170131 4.041311 -1.665784
v -25.588955 1.817681 -16.100220 0.752941 0.752941 0.752941
vn -1.933070 3.427267 4.605032
v -23.124720 1.223781 -11.462771 0.752941 0.752941 0.752941
vn -0.629676 1.699374 3.840777
v -21.771500 2.406781 -11.009171 0.752941 0.752941 0.752941
vn 3.538920 1.735763 3.903341
v -15.482615 2.617118 -14.368666 0.752941 0.752941 0.752941
vn 4.520754 0.500094 0.365657
v -12.987551 2.483630 -17.635313 0.752941 0.752941 0.752941
vn -2.428214 4.662270 -2.841026
v -21.265787 3.310842 -17.055574 0.752941 0.752941 0.752941
vn -2.712870 5.252584 0.955784
v -22.710964 3.215918 -13.689841 0.752941 0.752941 0.752941
vn -0.160414 3.535396 2.471762
v -20.343681 4.330482 -12.515918 0.752941 0.752941 0.752941
vn 2.643755 3.065541 -0.548512
v -13.544733 3.720204 -17.893492 0.752941 0.752941 0.752941
vn -0.481787 4.309956 -3.818313
v -17.091002 3.797305 -18.628586 0.752941 0.752941 0.752941
vn 1.512187 5.022060 2.176889
v -18.527374 4.791205 -14.274686 0.752941 0.752941 0.752941
vn -0.945397 4.944518 -0.999004
v -19.022625 5.100591 -16.098324 0.752941 0.752941 0.752941
# 135 vertices, 0 vertices normals


usemtl material_0
f 1//1 2//2 3//3
f 2//2 1//1 4//4
f 5//5 3//3 2//2
f 6//6 1//1 3//3
f 3//3 5//5 6//6
f 4//4 1//1 7//7
f 2//2 8//8 5//5
f 6//6 5//5 9//9
f 7//7 10//10 4//4
f 4//4 10//10 2//2
f 2//2 11//11 8//8
f 12//12 5//5 8//8
f 1//1 6//6 7//7
f 12//12 9//9 5//5
f 6//6 9//9 13//13
f 10//10 11//11 2//2
f 7//7 6//6 13//13
f 9//9 12//12 14//14
f 15//15 12//12 8//8
f 12//12 15//15 16//16
f 7//7 13//13 17//17
f 12//12 16//16 14//14
f 18//18 16//16 15//15
f 16//16 18//18 14//14
f 19//19 13//13 9//9
f 9//9 14//14 19//19
f 14//14 18//18 20//20
f 10//10 21//21 11//11
f 21//21 22//22 11//11
f 10//10 7//7 17//17
f 11//11 22//22 8//8
f 23//23 15//15 8//8
f 15//15 23//23 24//24
f 15//15 24//24 18//18
f 18//18 24//24 25//25
f 18//18 25//25 20//20
f 20//20 19//19 14//14
f 21//21 26//26 22//22
f 8//8 22//22 23//23
f 24//24 27//27 25//25
f 28//28 20//20 25//25
f 10//10 29//29 21//21
f 10//10 17//17 29//29
f 23//23 27//27 24//24
f 17//17 13//13 30//30
f 31//31 25//25 32//32
f 31//31 28//28 25//25
f 13//13 19//19 30//30
f 33//33 26//26 21//21
f 25//25 27//27 32//32
f 19//19 34//34 30//30
f 19//19 20//20 34//34
f 26//26 33//33 35//35
f 33//33 21//21 29//29
f 26//26 36//36 22//22
f 37//37 23//23 22//22
f 23//23 38//38 27//27
f 39//39 17//17 30//30
f 20//20 40//40 34//34
f 20//20 28//28 40//40
f 36//36 26//26 35//35
f 36//36 41//41 22//22
f 37//37 22//22 41//41
f 29//29 17//17 39//39
f 23//23 37//37 38//38
f 42//42 39//39 30//30
f 42//42 30//30 34//34
f 29//29 43//43 33//33
f 29//29 39//39 43//43
f 32//32 27//27 38//38
f 31//31 44//44 45//45
f 28//28 45//45 40//40
f 28//28 31//31 45//45
f 35//35 33//33 46//46
f 47//47 46//46 33//33
f 35//35 48//48 36//36
f 33//33 43//43 47//47
f 36//36 48//48 41//41
f 49//49 38//38 41//41
f 38//38 37//37 41//41
f 38//38 49//49 32//32
f 32//32 50//50 44//44
f 42//42 34//34 51//51
f 32//32 44//44 31//31
f 35//35 46//46 48//48
f 41//41 48//48 52//52
f 41//41 52//52 49//49
f 53//53 47//47 43//43
f 53//53 43//43 39//39
f 50//50 32//32 49//49
f 39//39 42//42 54//54
f 42//42 51//51 54//54
f 51//51 34//34 40//40
f 40//40 45//45 55//55
f 46//46 56//56 48//48
f 54//54 53//53 39//39
f 55//55 51//51 40//40
f 46//46 47//47 56//56
f 45//45 44//44 55//55
f 52//52 50//50 49//49
f 55//55 57//57 51//51
f 47//47 58//58 56//56
f 47//47 53//53 58//58
f 50//50 52//52 59//59
f 53//53 54//54 58//58
f 58//58 54//54 51//51
f 58//58 51//51 57//57
f 50//50 60//60 44//44
f 57//57 55//55 60//60
f 60//60 55//55 44//44
f 56//56 61//61 48//48
f 48//48 61//61 52//52
f 61//61 56//56 58//58
f 58//58 57//57 61//61
f 59//59 60//60 50//50
f 59//59 52//52 61//61
f 61//61 57//57 59//59
f 59//59 57//57 60//60
f 62//62 63//63 64//64
f 64//64 65//65 66//66
f 66//66 62//62 64//64
f 65//65 64//64 67//67
f 68//68 65//65 67//67
f 63//63 67//67 64//64
f 67//67 63//63 69//69
f 62//62 70//70 63//63
f 67//67 71//71 68//68
f 72//72 62//62 66//66
f 70//70 69//69 63//63
f 72//72 66//66 73//73
f 74//74 66//66 65//65
f 66//66 74//74 73//73
f 62//62 72//72 70//70
f 68//68 71//71 65//65
f 71//71 74//74 65//65
f 71//71 67//67 75//75
f 76//76 75//75 67//67
f 67//67 69//69 76//76
f 69//69 77//77 76//76
f 73//73 78//78 72//72
f 72//72 78//78 79//79
f 72//72 79//79 70//70
f 71//71 75//75 80//80
f 78//78 73//73 81//81
f 73//73 74//74 81//81
f 82//82 71//71 80//80
f 71//71 82//82 74//74
f 79//79 83//83 70//70
f 69//69 70//70 84//84
f 69//69 84//84 77//77
f 80//80 75//75 85//85
f 70//70 83//83 84//84
f 85//85 75//75 76//76
f 76//76 77//77 86//86
f 87//87 88//88 78//78
f 87//87 78//78 81//81
f 78//78 88//88 79//79
f 89//89 81//81 74//74
f 82//82 89//89 74//74
f 90//90 91//91 80//80
f 90//90 80//80 92//92
f 85//85 92//92 80//80
f 76//76 86//86 93//93
f 87//87 94//94 88//88
f 79//79 88//88 83//83
f 82//82 80//80 95//95
f 86//86 77//77 84//84
f 96//96 92//92 85//85
f 85//85 76//76 96//96
f 93//93 96//96 76//76
f 87//87 81//81 97//97
f 81//81 89//89 97//97
f 89//89 82//82 98//98
f 91//91 99//99 95//95
f 95//95 80//80 91//91
f 100//100 91//91 101//101
f 91//91 90//90 101//101
f 84//84 102//102 86//86
f 92//92 101//101 90//90
f 87//87 97//97 94//94
f 103//103 94//94 97//97
f 88//88 94//94 104//104
f 104//104 105//105 88//88
f 105//105 83//83 88//88
f 98//98 82//82 95//95
f 100//100 99//99 91//91
f 105//105 102//102 84//84
f 105//105 84//84 83//83
f 106//106 86//86 102//102
f 103//103 104//104 94//94
f 98//98 97//97 89//89
f 104//104 107//107 105//105
f 100//100 108//108 99//99
f 86//86 106//106 93//93
f 109//109 101//101 92//92
f 97//97 110//110 103//103
f 95//95 99//99 111//111
f 98//98 95//95 111//111
f 112//112 108//108 100//100
f 100//100 101//101 112//112
f 109//109 113//113 101//101
f 106//106 114//114 93//93
f 96//96 93//93 114//114
f 110//110 97//97 115//115
f 110//110 115//115 116//116
f 103//103 107//107 104//104
f 115//115 97//97 98//98
f 115//115 98//98 111//111
f 117//117 105//105 107//107
f 105//105 117//117 102//102
f 113//113 112//112 101//101
f 106//106 102//102 117//117
f 92//92 96//96 109//109
f 96//96 114//114 118//118
f 115//115 111//111 119//119
f 115//115 119//119 116//116
f 120//120 99//99 108//108
f 99//99 120//120 111//111
f 109//109 96//96 121//121
f 118//118 121//121 96//96
f 110//110 116//116 103//103
f 103//103 116//116 122//122
f 103//103 122//122 107//107
f 123//123 119//119 111//111
f 123//123 111//111 120//120
f 117//117 124//124 106//106
f 122//122 116//116 125//125
f 116//116 119//119 125//125
f 123//123 126//126 119//119
f 119//119 126//126 125//125
f 123//123 120//120 127//127
f 122//122 124//124 107//107
f 107//107 124//124 117//117
f 108//108 128//128 120//120
f 124//124 129//129 114//114
f 106//106 124//124 114//114
f 118//118 114//114 129//129
f 109//109 121//121 113//113
f 122//122 125//125 130//130
f 120//120 128//128 127//127
f 108//108 112//112 128//128
f 113//113 128//128 112//112
f 118//118 129//129 121//121
f 123//123 131//131 126//126
f 125//125 126//126 130//130
f 123//123 127//127 131//131
f 124//124 122//122 130//130
f 127//127 128//128 132//132
f 130//130 129//129 124//124
f 121//121 129//129 133//133
f 132//132 128//128 113//113
f 133//133 132//132 113//113
f 121//121 133//133 113//113
f 131//131 130//130 126//126
f 127//127 134//134 131//131
f 131//131 129//129 130//130
f 131//131 135//135 129//129
f 127//127 132//132 134//134
f 133//133 129//129 135//135
f 132//132 135//135 134//134
f 132//132 133//133 135//135
f 134//134 135//135 131//131
# 262 faces, 0 coords texture

# End of File
